#amk 2
$EF $FF $E0 $10
$F1 $06 $50 $01
#0 w160  t56 
#0     @9       q7f  v220 y10
$F4 $02
v140 @1 $ED $06 $E0 y12
$DE $60 $06 $40 o3c1^1 $E8 $30 $5C ^4 $E8 $FF $AC ^4^2^1
/

$EF $FF $F0 $0A
$F1 $06 $50 $01

@14 v255 o1 y10
(1)[g8g16>g16d16g16<]3
(2)[g16a16a+16>c16<a+16a16]
(1)(1)(1)(2)
(1)(1)(1)(2)

(1)(1)

(4)[g16a16a+16>c16<a+16>c16d16d+16d16c16<a+16a16>]


(3)[c8c16>c16<g16>c16<]

(3)(3)c16d16d+16f16d+16d16<(1)(1)(4)(1)(1)(1)
(5)[g16a16a+16a16g16f16]
(6)[d+8d+16>d+16<a+16>d+16<]
(6)
(7)[d+16d16d+16f16d+16f16g16d+16g16a16f16a16](1)(1)(1)(5)(6)(6)(7)(1)(1)(1)(5)(6)(6)(7)(1)(1)(1)(5)(6)(6)(7)(1)(1)g8g16>g16d16

g16<(2)(1)(1)(1)(2)(1)(1)(1)(2)(1)(1)(1)(2)(1)(1)(1)(2)(1)(1)(1)(2)(1)(1)(1)(2)(1)(1)(1)(2)>(6)(6)(6)(6)(6)(6)(6)(6)(3)(3)(3)(3)(3)(3)(3)c8c16>c16<g16>c16o1(1)(1)(1)(2)(1)(1)(1)(2);

#1
v140 @1 $ED $06 $E0 y11
$DE $45 $06 $40
r2
@1 $ED $06 $E0 
$DE $45 $06 $40 o3f1^2 $E8 $30 $5C ^4 $E8 $FF $AC ^4^2^1   
/ y10

r1^1^1
y5 y8 y12 y15
@9o4v240
(50)[
y7d16y9d+16y11e16y13f16y11e16y9d+16
y7d16y9d+16y11e16y13f16y11e16y9d+16
y7d16y9d+16y11e16y13f16y11e16y9d+16
y7d16y9d+16y11e16y13f16y11f+16y9g16

y7g+16y9a16y11a+16y13b16y11a+16y9a16
y7g+16y9a16y11a+16y13b16y11a+16y9a16
y7g+16y9a16y11g+16y13g16y11f+16y9f16y7e16y9d+16
y11d16y13c+16y11c16y9<b16>
y7d+16y9d16y11c16y13g16y11f16y9d+16y7>c16y9<g16>y11c16y13d+16
y11c16y9d+16y7g16y9f16y11d+16y13d16y11c16<y9a+16y7a16y9a+16y11a16y13g16y11f+16y9d+16y7d16
y9<a+16y11a16y13a+16y11a16y9g16y7d16y9c16y11<a+16y13a16y11g16y9f+16y7g16y9a+16>y11d16y13
g16y11a+16>y9d16y7g16y9a+16>y11d16y13g16y11a+16y9>d16]
@6o5 

$DE $30 $0E $40
[v210a+8d8a+16v150d16v210a8c8a16v150c16v210g8<a+8>g16v150<a+16>v210f8<a8>f16v150<a16>v210d+8<g8>d+16v170<g16>v210d8<f8>d16v130<f16>v210c16<d+16d16c16d+16g16>c16d+16g16>c16<a+16a16]2
g2^4
@4 v140
$ED $0F $E0
<<

(8)[y7g16y9g+16y11a16y13a+16y11a16y9g+16]3

y7g16y9g+16y11a16y13a+16y11>c16y9c+16y7d16y9c+16y11c16y13<a+16>y11c16y9c+16
y7d16y9c+16y11d16y13d+16y11d16y9c16y7<g16y9g+16y11a16y13a+16y11a16y9g+16y7g16y9g+16y11a16
y13a+16y11a16y9g+16   (8)   y7g16y9g+16y11a16y13a+16>y11c16y9c+16
y7d16y9c+16y11c16y13<a+16>y11c16y9c+16y7d16y9c+16y11d16y13d+16y11d16y9c16y7<a+16y9a16y11g16
y13>d+16y11<a+16y9g16>y7g16y9d+16y11g16y13a+16y11a16y9f16 $DF $ED $0F $EA  
g1^1 $DD $08 $D0 $A9 ^1r1^1^1

@2$DE $45 $06 $40 

o4>
[v100y7d16v120y9<a+16v140y11g16>v160y13d16<v180y11a+16v200y9g16
>v220y7d16<v200y9a+16v180y11g16>v160y13d16<v140y11a+16v120y9g16>v100y7d+16
v120y9<a+16v140y11g16>v160y13d+16v180y11<a+16v200y9g16>v220y7d+16
v200y9<a+16v180y11g16v160>y13d+16v140y11<a+16v120y9g16v100>y7c16y9v120<g16

v140y11e16v160>y13c16v180<y11g16v200y9e16>v220y7c16v200<y9g16v180y11e16
v160y13>c16v140y11
<g16v120y9e16>v100y7c16<v120y9a16v140y11f16v160y13>c16
v180y11<a16v200y9f16>v220y7c16v200y9<a16v180y11f16v160y13>c16v140y11<a16v120y9f16>]2



@9v200
[y7g16y9d+16y11<a+16>y13g16y11d+16<y9a+16>]2
(9)[y7a16y9d+16y11c16y13a16y11d+16y9c16]2

(10)[y7a+16y9g16y11d+16y13a+16y11g16y9d+16]2


(11)[>y7c16<y9a16y11f16>y13c16<y11a16y9f16]2

[y7g16y9d+16<y11a+16>y13g16y11d+16<y9a+16>]2

y7a16y9d+16y11c16y13a16y11d+16y9c16    (9)
y7a+16y9g16y11d+16
y13a+16y11g16y9d+16   (10)    >y7c16<y9a16y11f16>y13c16<
y11a16y9f16   (11)      >y7

v200
d16<v190y9b16v180y11g16>v170y13d16<v160y11b16y9v150g16>
y7v140d16<v130y9b16v120y11g16>v110y13d16<v100y11b16v95y9g16>v90y7d16<v85y9b16v80y11g16
>v75y13d16<v70y11b16v65y9g16>v60y7d16<v55y9b16v50y11
g16>v45y13d16<v40y11b16r16[^1]50;


#2
v140 @1 $ED $06 $E0 y9
$DE $45 $06 $40
o4r1^2d+2
$E8 $30 $5C ^4 $E8 $FF $AC ^4  
^1^2

/
v125 y15 @1 $ED $06 $E0 
$DE $45 $06 $40
v125d1^1^1^1^1^1   

$DD $50 $18 $A7 ^1^2 
$DD $50 $18 $A6  ^2^1


[d1^2d+1^8f4^8]4


r8r16^32^64^128
@1 o3 $EE $0A v90 
$ED $06 $E0
g2$DD $D0 $D0 $AB

^2^1^1 ^1 $DD $D0 $FF $9F ^1^2^4>

^128 $EE $00

;r1
;[^1]5
v125
[d2^4d+2^4e2^4c2^4]2
[g2^4]8
$DE $45 $04 $30 b1^1^1;

#3
v140 @1 $ED $06 $E0 y8
$DE $45 $06 $40
r1^1 $E8 $18 $5C g+4 $E8 $FF $AC ^4  ^2^2^2
/y10
v125 @1 $ED $06 $E0 
$DE $45 $06 $40
v155g1^1^1^1^1^1^1^1^1

[g1^1^2^8a4^8]4


$FA $00 $10 o5 @2 $ed $7f $e0
o5 v0 g2$DD $D0 $D0 $9A

^2^1^1 ^1 $DD $D0 $FF $AA ^1^1


;r1^1^1^1^1^1
 v125
@1 $ED $06 $E0 o3
[a+2^4]3
a2^4
[a+2^4]3
a2^4
r2^4>a2^4a+2^4>c2^4r2^4<a2^4a+2^4>c2^4d1^1^1;

#4
v125 @1 $ED $06 $E0 y10
$DE $45 $06 $40
o4r1<
$DE $45 $04 $30
a+1 $E8 $30 $5C ^4 $E8 $FF $AC ^4^1^2


/y5
o3v125 @1 $ED $06 $E0 
$DE $45 $06 $40
a+1^1^1^1^1^1

$DD $50 $18 $A4
^1^2 
$DD $50 $18 $A2

^2^1[a+1^1^2^8>c4^8<]4
$FA $00 $10
g2$DD $D0 $D0 $AB

^2^1^1 ^1 $DD $D0 $FF $9F ^1^1>
$FA $00 $00
[g2^4g2^4g2^4f2^4]2[d+2^4]8
$DE $45 $04 $30
g1^1^1;


#5     @9       q7f  v220 y10
r1^1^1^1
/
o3
(12)[@21c16@23g+16@21c16@29d16@23g+16@21c16@21c16@23g+16@21c16@29d16@21c16@29d16@21c16@23g+16@21c16@29d16@23g+16@21c16]@21c16@23g+16@21c16@29d16@29d16@29d16
(12)



(13)[@29d16@23g+16@21c16@29d32@29d32@29d16@29d16]
(12)
(14)[@21c16@23g+16@21c16@29d16@29d16@29d16]
(12)(13)(12)(14)(12)(13)(12)(14)(12)(13)(12)(14)
@21c16@23g+16@21c16@29d16@23g+16@21c16
@21c16@23g+16@21c16@29d16@21c16@29d16@21c16@23g+16@21c16@29d16
@23g+16@21c16(13)(12)(14)(12)(13)(12)(14)(12)(13)(12)(14)(12)(13)(12)(14)(12)(13)(12)(14)(12)(13)(12)(14)(12)(13)(12)(14)(12)(13)(12)(14)(12)(13)(12)(14)(12)(13);


#6
r1r1r1r1
/
r1r1r1
@9 v130 r16r32r64r128
(50)

[r1]26
r2
r8r16
@0 o5 v80 $ED $7F $ED  c16d16d+16f16g16a16 a+2^4a4^8f4^8<
l16 a+^^^^^^^^^^^^^^^^^>c^^^^^
d^^^^^^^^^^^
@2 c+^^^^^<a^^^^^b^^^^^^^^^^^^^^^^^^^^^^^
[r1]99

#7
r1r1r1r1
/
t56
y10v170 $E8 $60 $30 @23c32@23c32@23c32@23c32@23c32@23c32@23c32@23c32@23c32@23c32@23c32@23c32@23c32@23c32@23c32@23c32
[^1]11r2
v140 @6 $DE $30 $0E $40
o6d8<g8>d16<g16>c8<f8>c16<f16a+8d8a+16d16a8c8a16c16g8<a+8>g16<a+16>f8<a8>f16<a16>d+16<g16f16d+16g16>c16d+16g16>c16d+16d16c16<a+2^4r1^1^4


@4
v140 y10
$ED $0F $E0
<<[a+16>c16c+16d16c+16c16<]3
a+16>c16c+16d16d+16e16f16e16d+16d16d+16e16f16e16f16f+16f16d+16d16c16<a+16>g16d16<a+16>a+16g16a+16>d16c16<a16
$ED $0F $EA
a+1



$DD $D0 $FF $AC
^1^1r1^1^1^1^1^1

@2




v100y7g16v120y9d16<v140y11a+16>v160y13g16v180y11d16<v200y9a+16>v220y7g16v200y9d16<v180y11a+16>v160y13g16v140y11d16<v120y9a+16>
v100y7g16v120y9d+16<v140y11a+16>v160y13g16v180y11d+16<v200y9a+16>v220y7g16v200y9d+16<v180y11a+16>v160y13g16
v140y11d+16<v120y9a+16>v100y7e16<v120y9a+16v140y11g16>v160y13e16<v180y11a+16v200y9g16>y7v220e16<y9v200a+16y11v180g16>
y13v160e16<y11v140a+16y9v120g16>y7v100f16y9v120c16<y11v140a16>y13v160f16y11v180c16<y9v200a16>y7v220f16y9v200c16<
y11v180a16>y13v160f16y11v140c16<v8v120a16>

r1r1r2r8 o5 v120 $DE $30 $0E $30
@0 $ED $7F $ED  c16d16d+16f16g16a16 a+2^4a4^8f4^8<
l16 a+^^^^^^^^^^^^^^^^^>c^^^^^
d^^^^^^^^^^^
@2 c+^^^^^<a^^^^^b^^^^^^^^^^^^^^^^^^^^^^^
;
