#SPC
{
	#author "Jimmy52905"
	#comment "Oriental theme 1"
	#game "SMW Central Production 2"
}

#samples
{
	#default
	#AMM
	#sky_and_dream
}

#0 w160 t49

$EF $FF $1F $1F	;\
$F1 $04 $A0 $01	;/ Echo.

#0 @14 v160
$ED $5F $B8

o4
(10)[f+16  g+16a+16>c+16<f+16g+16a+16>c+16<f+16g+16a+16>c+16<
     d+16f+16g+16a+16d+16f+16g+16a+16d+16f+16g+16a+16]2
/
(10)4
(11)[d+16f+16g+16b16]1
(12)[>c+16c+16c+16c+16c+16r16c+16r16c+16r16d+16r16c+16r16<a+16r16
     g+16g+16g+16g+16g+16r16g+16r16g+16r16b16r16a+16r16g+16r16
     f+16f+16f+16f+16f+16r16f+16r16f+16r16a+16r16g+16r16f+16r16
     b16b16b16b16b16r16b16r16a+16r16g+16r16>c+16r16<b16r16]2
(10)6
(11)1
(12)2
[f+16g+16a+16>c+16<]5
f+4
(13)[r8.a+16a+16r16a+16r16b16r16a+16r16g+16r16a+16r16
     r8.a+16a+16r16a+16r16b16r16>c+16r16<a+16r16g+16r16
     r8.f+16f+16r16f+16r16g+16r16f+16r16f16r16f+16r16
     r8.f+16f+16r16f+16r16g+16r16f+16r16f16r16f+16r16]1
r2
(13)1

#1 @00 v255
$ED $0D $E0

$DE $2E $0C $38
$EA $35

o4
r1^1..a+8g+8
/
@00
$ED $0D $E0
v255
(20)[f+8c+16d+16f+8a+8g+8f+8
     g+4d+2
     f+8c+16d+16f+8a+8g+8f+8
     g+4a+2]2
b8g+8
(21)[f+8c+8f+8f+16g+16
     a+8a+8>c+8<a+8>c+8<g+16r16
     g+2.
     f+8d+8f+8f+16g+16
     a+8a+8b8a+8b8a+8
     f+4d+4c+4]2
r1^1..
@06
$ED $0C $E0
o4
a+8g+8
(20)2
b8g+8
(21)2
f+1^4r4
@14
v160
o4
(22)[r8.f+16f+16r16f+16r16g+16r16f+16r16f16r16f+16r16
     r8.f16f16r16f16r16g+16r16a+16r16g+16r16f16r16
     r8.d+16d+16r16d+16r16f+16r16d+16r16c+16r16d+16r16
     r8.d16d16r16d16r16e16r16c+16r16<b16r16>c+16r16]1
r2
(22)1

#2 @08 v255
$ED $7F $F0

o2
(30)[f+4c+8.c+16f+8a+8
     d+4<a+8.a+16>d+8f+8]2
/
(30)4
g+8b8
(31)[f+4c+8.c+16f+8a+8f+8c+8
     f4c+8.c+16f8g+8f8c+8
     d+4<a+8.a+16>d+8f+8d+8<a+8>
     d+4<b8.b16>c+8<b8g+8b8>]2
(30)6
g+8b8
(31)2
f+4c+8.c+16f+8a+8
f+4c+8.c+16f+4
(32)[f+4c+8.c+16f+8a+8f+8a+8
     f4c+8.c+16f8a+8f8a+8
     d+4<b8.b16>d+8f+8d+8f+8
     d4<b8.b16>c+8f+8c8f+8]1
     <b2>
(32)1

#3 @13 v140
$ED $09 $E0

$DE $2E $0C $38
$EA $35

r1^1^1
/
[r1]5
r4
o4
a+2.b4
(40)[a+1
     >c+1
     <f+1
     f+2g+2]2
[f+2.]11
@01
$ED $09 $E0
a+2.b4
(40)2
a+1^4r4
(41)[a+1
     a+1
     b1
     b1]1
r2
@13
$ED $09 $E0
(41)1

#7 @13 v140
$ED $09 $E0

$DE $2E $0C $38
$EA $35

r1^1^1
/
[r1]5
r4
o4
f+1
(50)[f+1
     g+1
     d+1
     d+2f2]2
[c+2.
 d+2.]5
c+2.
@01
$ED $09 $E0
f+1
(50)2
f+1^4r4
(51)[f+1
     f1
     f+1
     f+1]1
r2
@13
$ED $09 $E0
(51)1

#6 @13 v140
$ED $09 $E0

$DE $2E $0C $38
$EA $35

r1^1^1
/
[r1]5
r4
o4
d+1
(70)[c+1
     f1
     <a+1
     b2>c+2]2
<
[a+2.]11
@01
$ED $09 $E0
>d+1
(70)2
c+1^4r4
(71)[c+1
     c+1
     d+1
     d2c+2]1
r2
@13
$ED $09 $E0
(71)1

#5 @29 v255
[r1]3
/
o3
[r1]6
@29c8@29c16@29c16
(60)[@21c8@22c8@21c8@29c8@21c8@22c8@21c16@21c16@29c8]8
[r1]9
@29c8@29c16@29c16
(60)8
[r1]6

@00
$ED $0D $E0

$DE $2E $0C $38
$EA $35

o4
r4a+8f+8a+4b4
r4a+8f8a+4g+4
r4f+8d+8f+8.g+16f+8d+8
r4f+8g+8a+4g+4

#4 @23 v0

[c1]3
/
$ED $5F $97
v255
o4
[r1]6
(80)[c16 c16 c8]1
(81)[c8 c8   c8   c16   c16   c8   c8   c8   c8]8
[r1]9
(80)1
(81)8
r1^4
(80)1
(82)[  r8c8   r8c8   r8c16   c16   r8c8]4
[  c8]2
(80)1
(82)4                

#amk=1
